id;company_name;notes;discount_percent;webpage;fax;name;birthday;gender;tel;email;billing_address
1;Avis Budget Group;pugnacious\nfond of in the habit of fighting;5;https://www.example.org/bit.php#bead;(638) 673-2749;Jasmin Hatfield;2019-11-07;MALE;(771) 419-1521;alfred@att.net;"9577 Mechanic Dr.
Morrisville, PA 19067"
2;Corning;paradigm\na model example or pattern;68;http://www.example.com/blade.php;(257) 225-1062;Reid Berry;2019-11-07;MALE;(521) 237-5744;arnold@verizon.net;"579 Dogwood St.
West Chicago, IL 60185"
3;Zimmer Biomet Holdings;luculent\neasily understood lucid clear;60;https://www.example.net/;(570) 938-8308;Jaylen Guerrero;2019-11-07;OTHER;(957) 833-9734;gfxguy@yahoo.ca;"77 Sherman Dr.
Westwood, NJ 07675"
4;XPO Logistics;bigot\nstubborn narrow-minded person;37;http://www.example.com/angle.php?basket=belief&animal=arm;(404) 751-4040;Rubi Kelley;2019-11-06;FEMALE;(584) 236-7348;gavollink@gmail.com;"398 Elizabeth Ave.
Pottstown, PA 19464"
5;Advanced Micro Devices;probity\nuprightness incorruptibility principle;76;http://www.example.net/;(266) 769-2358;Weston Collins;2019-11-07;MALE;(537) 483-8584;jsmith@yahoo.ca;"552 St Louis Ave.
Brooklyn, NY 11201"
6;Kinder Morgan;reticent\nreserved untalkative silent taciturn;12;https://www.example.org/books/beds.php;(948) 986-7276;Brianna Yates;2019-11-06;OTHER;(924) 245-5021;martink@msn.com;"9271 Andover St.
Glen Cove, NY 11542"
7;Anixter International;petulant\nunreasonably impatient;45;http://www.example.org/;(955) 983-1031;Odin Calhoun;2019-11-07;OTHER;(549) 573-3978;miyop@me.com;"8414 W. South Rd.
Lorain, OH 44052"
8;Paccar;portent\nomen marvelous threatening;68;http://www.example.edu/bird.htm#advice;(243) 510-3831;Gretchen Lopez;2019-11-07;OTHER;(816) 707-5155;rasca@gmail.com;"67 Summerhouse Dr.
Glen Ellyn, IL 60137"
9;Occidental Petroleum;ford\nshallow place in a river (to cross);94;https://afternoon.example.com/;(494) 791-1549;Roberto Ryan;2019-11-07;OTHER;(823) 257-0283;jfmulder@live.com;"7982 Pilgrim St.
Florence, SC 29501"
10;Halliburton;deferential\nshowing respect;43;https://www.example.com/afterthought#behavior;(378) 562-5695;Belen Phelps;2019-11-07;MALE;(686) 399-4302;kayvonf@msn.com;"795 Heritage Dr.
Fredericksburg, VA 22405"
11;Hormel Foods;quirk\nhabit or action peculiar to smb or smth;99;http://www.example.com/;(915) 627-3580;Leticia Cardenas;1980-12-07;MALE;(328) 785-0429;kspiteri@yahoo.com;"31 Division Street
Ankeny, IA 50023"
12;Jones Lang LaSalle;stray\nwander lose one's way;0;http://www.example.com/blade/baby.html;(546) 557-7552;Quinton Lynch;1980-11-07;OTHER;(648) 823-2212;fglock@msn.com;"725 Pumpkin Hill St.
Chesapeake, VA 23320"
13;Ascena Retail Group;plethora\nglut;4;http://bubble.example.com/;(796) 845-6418;Stacy Hood;1980-01-07;FEMALE;(486) 858-2171;quinn@icloud.com;"98 Orchard St.
Mchenry, IL 60050"
14;FedEx;pertain\nbelong as a part have reference;97;http://example.com/;(836) 735-6124;Will Nunez;1985-01-07;FEMALE;(208) 572-1155;gward@optonline.net;"849 Devon St.
Des Moines, IA 50310"
15;Williams;substantiation\ngiving facts to support (statement);5;https://www.example.com/book/attraction?bomb=bag;(976) 566-1883;Melany Luna;2019-11-07;MALE;(392) 384-6012;garland@optonline.net;"26 South Magnolia Circle
Palm Harbor, FL 34683"
16;CHS;ferocity\nsavage cruelty;68;https://example.com/;(309) 327-7172;Augustus Rubio;2019-11-07;MALE;(938) 799-5029;maneesh@mac.com;"337 SW. Temple Ave.
Wheeling, WV 26003"
17;Morgan Stanley;truce\n(agreement) stop of fighting for a time;60;http://www.example.net/;(676) 393-8687;Brogan Bond;2019-11-07;OTHER;(248) 598-4764;pdbaby@comcast.net;"750 Clinton Road
Saint Paul, MN 55104"
18;Caesars Entertainment;pluck\npull the feathers off pick (e.g.. flowers);37;http://www.example.com/bikes;(445) 443-1922;Alonzo Franklin;2019-11-06;FEMALE;(533) 322-0896;gbacon@live.com;"58 Marsh St.
North Tonawanda, NY 14120"
19;Land O'Lakes;conviction\nconvincing firm belief;76;https://example.com/;(778) 825-4310;Leonidas Franklin;2019-11-07;MALE;(286) 693-7409;gamma@msn.com;"9546 York Road
Newtown, PA 18940"
20;Honeywell International;drone\nmale bee person who isn't self-employed;12;https://www.example.org/approval.html;(972) 998-0388;Drake Gregory;2019-11-06;OTHER;(832) 964-5115;dinther@outlook.com;"912 Helen St.
Wakefield, MA 01880"
21;General Motors;compunction\nfeeling of regret for one's action;45;https://example.edu/;(598) 593-8708;Kamren Sampson;2019-11-07;OTHER;(420) 292-3939;fallorn@outlook.com;"597 Circle Lane
Arlington Heights, IL 60004"
22;Edison International;undermine\nweaken gradually at the base make smth under;68;http://www.example.com/;(897) 680-6074;Darren Curry;2019-11-07;OTHER;(339) 429-4110;bowmanbs@hotmail.com;"8251 N. Garden Dr.
Naples, FL 34116"
23;Kroger;expostulate\nargue earnestly to dissuade correct or protest;94;https://www.example.net/;(333) 311-0604;Ali Smith;2019-11-07;OTHER;(219) 268-6740;uqmcolyv@mac.com;"9514 South Glen Creek Street
Caldwell, NJ 07006"
24;Lowe's;putrefaction\nbecoming rotten;43;http://example.net/approval/advice;(967) 836-6199;Itzel Garcia;2019-11-07;MALE;(521) 816-6753;intlprog@live.com;"98 Shadow Brook Dr.
Paramus, NJ 07652"
25;Adobe;servile\nlike a slave lacking independence;99;https://example.com/believe/aftermath;(526) 491-6433;Cadence Hartman;1980-12-07;MALE;(674) 495-4470;presoff@verizon.net;"50 Meadow Ave.
Londonderry, NH 03053"
26;Alcoa;skiff\nsmall boat;0;http://www.example.com/afterthought.aspx?authority=apparatus&badge=bat;(245) 701-4251;Jaylin Bryan;1980-11-07;OTHER;(964) 633-6511;oracle@gmail.com;699 Miller Dr.\nCulpeper, VA 22701
27;Booking Holdings;spurious\nFALSE counterfeit;4;https://example.com/;(707) 492-9439;Kira Lam;1980-01-07;FEMALE;(968) 982-2924;kudra@yahoo.com;"228 Jackson Street
Allison Park, PA 15101"
28;Citizens Financial Group;salutary\nremedial wholesome causing improvement;97;http://www.example.com/books/agreement.php;(991) 338-7968;Zaiden Kramer;1985-01-07;FEMALE;(219) 879-0531;citadel@yahoo.com;"700 Gainsway St.
Evans, GA 30809"
29;Targa Resources;husk\nworthless outside part of anything;4;https://www.example.com/boy.php;(476) 918-8725;Bobby Leach;1980-01-07;FEMALE;(200) 330-9282;janneh@aol.com;"217 S. Cemetery St.
Lake Mary, FL 32746"
30;PG&E;propitious\nauspicious presenting favorable circumstances;43;https://www.example.com/arithmetic.aspx#arm;(331) 682-0485;Dylan Bennett;2019-11-07;MALE;(258) 304-0282;jespley@outlook.com;"645 Cottage Ave.
Lewiston, ME 04240"
31;Sherwin-Williams;sophomoric\nself-assured though immature affected bombastic overblown;99;https://bike.example.net/beds/belief;(236) 623-4648;Gisselle Howell;1980-12-07;MALE;(654) 546-2746;cgarcia@outlook.com;"15 Lantern St.
East Elmhurst, NY 11369"
32;Anadarko Petroleum;coy\nshy/modest (esp of a girl);0;http://example.com/;(379) 304-9857;Caylee Randolph;1980-11-07;OTHER;(581) 806-5574;clkao@yahoo.ca;"47 Liberty Drive
Liverpool, NY 13090"
33;Clorox;approbation\napproval;4;http://www.example.com/?ball=brake;(912) 427-3433;Rylee Spencer;1980-01-07;FEMALE;(480) 994-7791;bockelboy@comcast.net;"139 Sulphur Springs Avenue
Hallandale, FL 33009"
34;Oracle;revere\nhave deep respect for;97;https://www.example.com/act/account.php;(571) 356-4367;Annie Mullins;1985-01-07;FEMALE;(561) 778-4070;skoch@comcast.net;"7529 Pineknoll Street
Ridgecrest, CA 93555"
35;Calpine;cursory\nquick hurried;5;https://brass.example.com/base/book;(801) 720-5265;Cruz Rivers;2019-11-07;MALE;(978) 519-5789;campware@att.net;"9332 Taylor Street
Fitchburg, MA 01420"
36;Thermo Fisher Scientific;heresy\nbelief contrary to what is generally accepted;68;https://example.com/amount;(539) 425-4305;Jaylon Pennington;2019-11-07;MALE;(379) 217-8743;webdragon@yahoo.ca;"21 Corona Street
Pompano Beach, FL 33060"
37;Yum Brands;steeply\nrising or falling sharply;60;https://www.example.com/?balance=baby&baby=boat;(576) 220-0278;Monique Moss;2019-11-07;OTHER;(459) 633-4158;seanq@optonline.net;"25 Amerige Street
Suitland, MD 20746"
38;McDonald's;quibble\ntry to avoid by sophistication;37;http://www.example.com/border;(481) 759-3797;Harley Gould;2019-11-06;FEMALE;(689) 516-9547;jorgb@me.com;"36 Grant Dr.
New Bedford, MA 02740"
39;BorgWarner;indulge\ngratify give way to satisfy allow oneself;76;https://bells.example.com/;(585) 588-9654;Xavier Guzman;2019-11-07;MALE;(860) 999-2365;biglou@icloud.com;"7 Valley View Ave.
Rosedale, NY 11422"
40;Cognizant Technology Solutions;introspection\nexamining one's own thoughts and feelings;12;http://www.example.com/;(709) 783-6560;Landin Davis;2019-11-06;OTHER;(245) 856-6506;ganter@icloud.com;"20 Lees Creek Dr.
Newburgh, NY 12550"
41;Allstate;innocuous\ncausing no harm;45;http://www.example.com/;(474) 619-8422;Amelia Rivers;2019-11-07;OTHER;(732) 391-9685;kingma@sbcglobal.net;"921 SW. Rosewood St.
Wadsworth, OH 44281"
42;Qualcomm;voluble\nfluent;68;https://boat.example.com/?book=bomb;(307) 543-4843;Kayleigh Vincent;2019-11-07;OTHER;(518) 354-5740;mavilar@comcast.net;"8267 Bay Meadows Ave.
Atwater, CA 95301"
43;Masco;intersperse\nplace here and there;94;https://www.example.com/blade/ball;(238) 768-5113;Peter Mullen;2019-11-07;OTHER;(514) 924-8401;chinthaka@sbcglobal.net;"7 10th Circle
Erlanger, KY 41018"
44;Oshkosh;stipple\npaint with dots;43;https://www.example.com/bridge/agreement.php?approval=airport;(252) 849-1018;Luz Rubio;2019-11-07;MALE;(689) 588-0955;godeke@yahoo.com;"7256 Nicolls St.
Newark, NJ 07103"
45;Fiserv;pundit\npedant authority on a subject;99;http://www.example.com/branch;(316) 244-5908;Aaliyah Bush;1980-12-07;MALE;(928) 231-0737;klaudon@msn.com;"11 W. Temple Road
Syosset, NY 1171"
46;Synnex;recompense\nmake payment to reward punish;0;https://baseball.example.com/;(615) 460-8077;Abbie Frey;1980-11-07;OTHER;(798) 446-9882;gumpish@icloud.com;"3 St Paul Ave.
Butler, PA 16001"
47;PNC Financial Services;indistinct\nnot easily heard seen clearly marked;4;http://www.example.com/belief.aspx?authority=books;(480) 744-0204;Alvin Hardy;1980-01-07;FEMALE;(249) 485-2470;leocharre@live.com;"57 N. Church Ave.
Victoria, TX 77904"
48;IBM;extol\npraise highly;97;http://www.example.com/;(952) 862-3897;Holly Burch;1985-01-07;FEMALE;(767) 287-7732;mbrown@hotmail.com;"32 Linda Lane
Defiance, OH 43512"
49;Alaska Air Group;meticulous\ngiving great attention to details;4;https://example.com/badge?boundary=brake&amount=bomb;(391) 818-0144;Johan Hooper;1980-01-07;FEMALE;(224) 455-5266;jcholewa@att.net;"802 Birchpond Lane
Santa Monica, CA 90403"
